…
``` r
# install.packages("devtools")
devtools::install_github("curso-r/scry")
```

## Usage

scry makes it easy to process *Magic* cards’ data programatically.

``` r
library(scry)

# Find red creatures with 7 power, sorted by converted mana cost
(cards <- scry_cards("c:red+pow=7", order = "cmc"))
#> # A tibble: 52 × 73
#>    arena_id id            lang  mtgo_id mtgo_foil_id multiverse_ids tcgplayer_id
#>       <int> <chr>         <chr>   <int>        <int> <list>                <int>
#>  1       NA deaa0b9b-258… en      20656        20657 <int [1]>             11871
#>  2       NA e0ddcf4a-194… en      18075        18076 <int [1]>             10357
#>  3       NA cbe3a68e-c29… en      29603        29604 <int [1]>             18605
#>  4    72399 6c59a4db-580… en         NA           NA <int [1]>            216652
#>  5       NA b4036bb7-835… en         NA           NA <int [1]>            124134
#>  6       NA 2a0417bf-b73… en      51743        51744 <int [1]>             78745
#>  7       NA 7fa40fde-2c1… en      40641        40961 <int [1]>             46945
#>  8       NA 0b4a16be-ab3… en      32254        32255 <int [1]>             31704
#>  9       NA bff49651-367… en      43678        43679 <int [1]>             58088
#> 10    70655 05bc4236-566… en      79412           NA <int [1]>            207134
#> # … with 42 more rows, and 66 more variables: cardmarket_id <int>,
#> #   object <chr>, oracle_id <chr>, prints_search_uri <chr>, rulings_uri <chr>,
#> #   scryfall_uri <chr>, uri <chr>, all_parts <list>, cmc <dbl>,
#> #   color_identity <list>, colors <list>, edhrec_rank <int>, keywords <list>,
#> #   layout <chr>, legalities <list>, mana_cost <chr>, name <chr>,
#> #   oracle_text <chr>, oversized <lgl>, power <chr>, produced_mana <list>,
#> #   reserved <lgl>, toughness <chr>, type_line <chr>, artist <chr>, …
…
