# scry-cards mocks correctly

    Code
      scry_cards("c:red+pow=3")
    Output
      # A tibble: 566 x 73
         id     name    set   lang  colors color_identity mana_cost   cmc oracle_text 
         <chr>  <chr>   <chr> <chr> <list> <list>         <chr>     <dbl> <chr>       
       1 18658~ Acolyt~ ori   en    <chr ~ <chr [1]>      {2}{R}        3 "Renown 1 (~
       2 9854c~ Admira~ xln   en    <chr ~ <chr [3]>      {1}{U}{B~     4 "Other Pira~
       3 68011~ Aegar,~ khm   en    <chr ~ <chr [2]>      {1}{U}{R}     3 "Whenever a~
       4 a2c04~ Afflic~ dka   en    <NULL> <chr [1]>      <NA>          4  <NA>       
       5 c2521~ Agrus ~ rav   en    <chr ~ <chr [2]>      {3}{R}{W}     5 "Whenever A~
       6 dd5db~ Ahn-Cr~ akh   en    <chr ~ <chr [1]>      {2}{R}        3 "Haste\nYou~
       7 0ff94~ Ainok ~ ktk   en    <chr ~ <chr [1]>      {5}{R}        6 "First stri~
       8 23736~ Akim, ~ c20   en    <chr ~ <chr [3]>      {2}{U}{R~     5 "Flying\nWh~
       9 69e42~ Akiri,~ znr   en    <chr ~ <chr [2]>      {1}{R}{W}     3 "Whenever y~
      10 304a2~ Akoum ~ bfz   en    <chr ~ <chr [1]>      {2}{R}{R}     4 "Flying, ha~
      # ... with 556 more rows, and 64 more variables: power <chr>, toughness <chr>,
      #   type_line <chr>, edhrec_rank <int>, keywords <list>, layout <chr>,
      #   legalities <list>, oversized <lgl>, reserved <lgl>, oracle_id <chr>,
      #   mtgo_id <int>, mtgo_foil_id <int>, multiverse_ids <list>,
      #   tcgplayer_id <int>, cardmarket_id <int>, uri <chr>, scryfall_uri <chr>,
      #   rulings_uri <chr>, prints_search_uri <chr>, artist <chr>,
      #   artist_ids <list>, booster <lgl>, border_color <chr>, ...

---

    Code
      scry_cards("c:red+pow=3", page = 2)
    Output
      # A tibble: 175 x 72
         id      name  set   lang  colors color_identity mana_cost   cmc oracle_text  
         <chr>   <chr> <chr> <chr> <list> <list>         <chr>     <dbl> <chr>        
       1 8bdb28~ Gobl~ dom   en    <chr ~ <chr [1]>      {R}{R}{R}     3 "First strik~
       2 e07c0c~ Gobl~ lgn   en    <chr ~ <chr [2]>      {3}{R}        4 "{T}, Sacrif~
       3 0c0b85~ Gobl~ ddn   en    <chr ~ <chr [2]>      {B}{R}        2 "Trample"    
       4 5082e0~ Gobl~ ogw   en    <chr ~ <chr [1]>      {3}{R}        4 "Surge {1}{R~
       5 5b3bfe~ Gobl~ frf   en    <chr ~ <chr [1]>      {3}{R}        4 "Whenever Go~
       6 6a85b2~ Gobl~ uds   en    <chr ~ <chr [1]>      {4}{R}{R}     6 "Echo {4}{R}~
       7 d55da0~ Gobl~ bbd   en    <chr ~ <chr [1]>      {2}{R}{R}     4 "{1}{R}, Sac~
       8 25f4f0~ Gobl~ 4ed   en    <chr ~ <chr [1]>      {1}{R}        2 "Trample\nGo~
       9 9097ec~ Gobl~ m15   en    <chr ~ <chr [1]>      {2}{R}        3 ""           
      10 2bc699~ Gobl~ m19   en    <chr ~ <chr [1]>      {2}{R}{R}     4 "Other Gobli~
      # ... with 165 more rows, and 63 more variables: power <chr>, toughness <chr>,
      #   type_line <chr>, edhrec_rank <int>, keywords <list>, layout <chr>,
      #   legalities <list>, oversized <lgl>, reserved <lgl>, oracle_id <chr>,
      #   arena_id <int>, mtgo_id <int>, multiverse_ids <list>, tcgplayer_id <int>,
      #   cardmarket_id <int>, uri <chr>, scryfall_uri <chr>, rulings_uri <chr>,
      #   prints_search_uri <chr>, artist <chr>, artist_ids <list>, booster <lgl>,
      #   border_color <chr>, card_back_id <chr>, collector_number <chr>, ...
…
