Retrieve information about cards — scry-cards • scry
…
security_stamp [chr]: The security stamp on this card, if any. One of
oval, triangle, acorn, or arena.

watermark [chr]: This card's watermark, if any.

    References

    https://scryfall.com/docs/api/cards

    Examples

# \donttest{
# Get all legendary vampires
scry_cards("t:vampire t:legend")
#> # A tibble: 48 × 70
#>    id         name     set   lang  colors color_identity mana_cost   cmc
#>    <chr>      <chr>    <chr> <chr> <list> <list>         <chr>     <dbl>
#>  1 913dd06f-… Anje Fa… c19   en    <chr … <chr [2]>      {1}{B}{R}     3
#>  2 1bfac4ab-… Anje, M… vow   en    <chr … <chr [2]>      {2}{B}{R}     4
#>  3 b8630ae1-… Anowon,… voc   en    <chr … <chr [1]>      {3}{B}{B}     5
#>  4 bca84fc4-… Anowon,… znc   en    <chr … <chr [2]>      {2}{U}{B}     4
#>  5 e811f37a-… Arvad t… dom   en    <chr … <chr [2]>      {3}{W}{B}     5
#>  6 213ad4ba-… Ascenda… hop   en    <chr … <chr [1]>      {4}{B}{B}     6
#>  7 e5fb44d7-… Baron S… me1   en    <chr … <chr [1]>      {5}{B}{B…     8
#>  8 487e843f-… Crovax … tpr   en    <chr … <chr [1]>      {2}{B}{B}     4
#>  9 2c58ce5e-… Drana, … c17   en    <chr … <chr [1]>      {3}{B}{B}     5
#> 10 31d0c37f-… Drana, … jmp   en    <chr … <chr [1]>      {1}{B}{B}     3
#> # … with 38 more rows, and 62 more variables: oracle_text <chr>,
#> #   power <chr>, toughness <chr>, type_line <chr>, edhrec_rank <int>,
#> #   keywords <list>, layout <chr>, legalities <list>, oversized <lgl>,
#> #   reserved <lgl>, oracle_id <chr>, mtgo_id <int>,
#> #   multiverse_ids <list>, tcgplayer_id <int>, cardmarket_id <int>,
#> #   uri <chr>, scryfall_uri <chr>, rulings_uri <chr>,
#> #   prints_search_uri <chr>, artist <chr>, artist_ids <list>, …
…
