Retrieve information about sets — scry-sets • scry
…
    Due to Magic's long and complicated history, Scryfall includes many
un-official sets as a way to group promotional or outlier cards together.
Such sets will likely have a code that begins with p or t, such as pcel
or tori. Official sets always have a three-letter set code, such as zen.

    References

    https://scryfall.com/docs/api/sets

    Examples

# \donttest{
# Get all sets
scry_sets()
#> # A tibble: 721 × 19
#>    id     code  name  uri   scryfall_uri search_uri released_at set_type
#>    <chr>  <chr> <chr> <chr> <chr>        <chr>      <date>      <chr>   
#>  1 a6012… tunf  Unfi… http… https://scr… https://a… 2022-04-01  token   
#>  2 b314f… unf   Unfi… http… https://scr… https://a… 2022-04-01  funny   
#>  3 b11b2… pw22  Wiza… http… https://scr… https://a… 2022-03-05  promo   
#>  4 5b4d9… nec   Neon… http… https://scr… https://a… 2022-02-18  command…
#>  5 59a20… neo   Kami… http… https://scr… https://a… 2022-02-18  expansi…
#>  6 5bd03… tnec  Neon… http… https://scr… https://a… 2022-02-18  token   
#>  7 8bb11… tneo  Kami… http… https://scr… https://a… 2022-02-18  token   
#>  8 78a7f… cc2   Comm… http… https://scr… https://a… 2022-01-28  command…
#>  9 5c163… dbl   Inni… http… https://scr… https://a… 2022-01-28  draft_i…
#> 10 8a673… y22   Alch… http… https://scr… https://a… 2021-12-09  expansi…
#> # … with 711 more rows, and 11 more variables: card_count <int>,
#> #   parent_set_code <chr>, digital <lgl>, nonfoil_only <lgl>,
#> #   foil_only <lgl>, icon_svg_uri <chr>, tcgplayer_id <int>,
#> #   mtgo_code <chr>, arena_code <chr>, block_code <chr>, block <chr>
…
